<?xml version="1.0" encoding="UTF-8" standalone="no"?>
<svg
   xmlns:sketch="http://www.bohemiancoding.com/sketch/ns"
   xmlns:dc="http://purl.org/dc/elements/1.1/"
   xmlns:cc="http://creativecommons.org/ns#"
   xmlns:rdf="http://www.w3.org/1999/02/22-rdf-syntax-ns#"
   xmlns:svg="http://www.w3.org/2000/svg"
   xmlns="http://www.w3.org/2000/svg"
   xmlns:xlink="http://www.w3.org/1999/xlink"
   xmlns:sodipodi="http://sodipodi.sourceforge.net/DTD/sodipodi-0.dtd"
   xmlns:inkscape="http://www.inkscape.org/namespaces/inkscape"
   version="1.0"
   width="1500"
   height="500"
   viewBox="0 0 1126.8201 650.07257"
   preserveAspectRatio="xMidYMid meet"
   id="svg3895"
   sodipodi:docname="staticmanlab-frama.svg"
   inkscape:version="0.92.3 (5aff6ba, 2018-11-25)"
   inkscape:export-filename="/home/vin100/quickstart/static/img/staticmanlab.png"
   inkscape:export-xdpi="192"
   inkscape:export-ydpi="192">
  <title
     id="title3903">Staticmanlab Logo</title>
  <defs
     id="defs3899">
    <g
       id="g90">
      <symbol
         id="glyph0-0"
         overflow="visible"
         style="overflow:visible">
        <path
           id="path84"
           d=""
           style="stroke:none"
           inkscape:connector-curvature="0" />
      </symbol>
      <symbol
         id="glyph0-1"
         overflow="visible"
         style="overflow:visible">
        <path
           id="path87"
           d="m 3.828125,-3.296875 c 0.09375,-0.109375 0.140625,-0.25 0.140625,-0.265625 0,-0.0625 -0.09375,-0.21875 -0.125,-0.265625 L 2,-6.5 h 1.984375 c 1.6875,0 2,0.203125 2.234375,1.9375 H 6.8125 L 6.5,-7.140625 H 0.8125 c -0.234375,0 -0.4375,0.171875 -0.4375,0.4375 L 2.828125,-3.15625 0.53125,-0.546875 C 0.4375,-0.4375 0.390625,-0.296875 0.390625,-0.265625 0.390625,-0.15625 0.671875,0 0.8125,0 H 6.5 L 6.8125,-2.6875 H 6.21875 C 6.015625,-0.84375 5.515625,-0.75 3.953125,-0.75 h -2.375 z m 0,0"
           style="stroke:none"
           inkscape:connector-curvature="0" />
      </symbol>
    </g>
    <clipPath
       id="clip1">
      <path
         id="path92"
         d="M 0,0 H 7 V 6.808594 H 0 Z m 0,0"
         inkscape:connector-curvature="0" />
    </clipPath>
    <g
       id="g3905">
      <symbol
         id="glyph0-0-5"
         overflow="visible"
         style="overflow:visible">
        <path
           id="path3899"
           d=""
           style="stroke:none"
           inkscape:connector-curvature="0" />
      </symbol>
      <symbol
         id="glyph0-1-3"
         overflow="visible"
         style="overflow:visible">
        <path
           id="path3902"
           d="m 2.890625,-6.6875 c 0,-0.1875 -0.203125,-0.5 -0.390625,-0.5 -0.203125,0 -0.40625,0.3125 -0.40625,0.5 V 0.421875 L 2.4375,0.3125 C 2.1875,-0.0625 1.90625,-0.34375 1.671875,-0.53125 1.0625,-0.984375 0.3125,-1.125 0.296875,-1.125 c -0.125,0 -0.328125,0.25 -0.328125,0.328125 0,0.15625 0.203125,0.296875 0.4375,0.375 0.671875,0.1875 0.921875,0.5 1.15625,0.75 0.5,0.546875 0.5625,1.0625 0.625,1.359375 0,0.0625 0.234375,0.234375 0.3125,0.234375 0.078125,0 0.296875,-0.203125 0.3125,-0.28125 0.21875,-1.125 0.734375,-1.78125 1.828125,-2.09375 C 4.796875,-0.5 5.015625,-0.625 5.015625,-0.796875 5.015625,-0.875 4.8125,-1.125 4.6875,-1.125 c -0.015625,0 -0.75,0.140625 -1.3125,0.5625 -0.328125,0.25 -0.609375,0.546875 -0.828125,0.875 l 0.34375,0.109375 z m 0,0"
           style="stroke:none"
           inkscape:connector-curvature="0" />
      </symbol>
    </g>
    <clipPath
       id="clip1-5">
      <path
         id="path3907"
         d="M 0,0 H 4.980469 V 8.859375 H 0 Z m 0,0"
         inkscape:connector-curvature="0" />
    </clipPath>
    <inkscape:perspective
       id="perspective10"
       inkscape:persp3d-origin="372.04725 : 350.78739 : 1"
       inkscape:vp_z="744.09447 : 526.18109 : 1"
       inkscape:vp_y="0 : 1000 : 0"
       inkscape:vp_x="0 : 526.18109 : 1"
       sodipodi:type="inkscape:persp3d" />
    <inkscape:perspective
       inkscape:persp3d-origin="300 : 400 : 1"
       inkscape:vp_z="700 : 600 : 1"
       inkscape:vp_y="0 : 1000 : 0"
       inkscape:vp_x="-50 : 600 : 1"
       id="perspective2971"
       sodipodi:type="inkscape:persp3d" />
    <linearGradient
       id="linearGradient32276">
      <stop
         id="stop32278"
         offset="0"
         style="stop-color:#aa4400;stop-opacity:1;" />
      <stop
         id="stop32280"
         offset="1"
         style="stop-color:#aa4400;stop-opacity:0;" />
    </linearGradient>
    <linearGradient
       id="linearGradient32282">
      <stop
         id="stop32284"
         offset="0"
         style="stop-color:#214478;stop-opacity:1" />
      <stop
         id="stop32286"
         offset="1"
         style="stop-color:#214478;stop-opacity:0" />
    </linearGradient>
    <linearGradient
       id="linearGradient32288">
      <stop
         id="stop32290"
         offset="0"
         style="stop-color:#ffffff;stop-opacity:1" />
      <stop
         id="stop32292"
         offset="1"
         style="stop-color:#ffffff;stop-opacity:0" />
    </linearGradient>
    <filter
       id="filter32294">
      <feGaussianBlur
         id="feGaussianBlur32296"
         stdDeviation="3.6000515"
         inkscape:collect="always" />
    </filter>
    <linearGradient
       gradientUnits="userSpaceOnUse"
       y2="186.34253"
       x2="748.35468"
       y1="186.34253"
       x1="189.74031"
       id="linearGradient32310"
       xlink:href="#linearGradient22847"
       inkscape:collect="always" />
    <radialGradient
       gradientUnits="userSpaceOnUse"
       gradientTransform="matrix(6.3098775,1.8036137e-7,-9.7608697e-7,2.8098424,-1590.7932,-512.50596)"
       r="0.84134614"
       fy="283.17709"
       fx="299.59137"
       cy="283.17709"
       cx="299.59137"
       id="radialGradient32316"
       xlink:href="#linearGradient32288"
       inkscape:collect="always" />
    <radialGradient
       r="0.84134614"
       fy="283.17709"
       fx="299.59137"
       cy="283.17709"
       cx="299.59137"
       gradientTransform="matrix(6.3098775,1.8036137e-7,-9.7608697e-7,2.8098424,-1590.7932,-512.50596)"
       gradientUnits="userSpaceOnUse"
       id="radialGradient32318"
       xlink:href="#linearGradient32288"
       inkscape:collect="always" />
    <linearGradient
       gradientUnits="userSpaceOnUse"
       y2="311.45831"
       x2="267.8125"
       y1="311.45831"
       x1="265.83334"
       id="linearGradient32320"
       xlink:href="#linearGradient23254"
       inkscape:collect="always" />
    <radialGradient
       gradientUnits="userSpaceOnUse"
       gradientTransform="matrix(1,0,0,0.6014493,0,143.97646)"
       r="57.5"
       fy="361.25"
       fx="175.83333"
       cy="361.25"
       cx="175.83333"
       id="radialGradient32326"
       xlink:href="#linearGradient25536"
       inkscape:collect="always" />
    <linearGradient
       gradientUnits="userSpaceOnUse"
       y2="339.79166"
       x2="259.58334"
       y1="339.79166"
       x1="248.33333"
       id="linearGradient32328"
       xlink:href="#linearGradient26521"
       inkscape:collect="always" />
    <marker
       style="overflow:visible"
       id="Arrow1Mend"
       refX="0"
       refY="0"
       orient="auto"
       inkscape:stockid="Arrow1Mend">
      <path
         transform="matrix(-0.4,0,0,-0.4,-4,0)"
         style="fill-rule:evenodd;stroke:#000000;stroke-width:1.00000003pt;marker-start:none"
         d="M 0,0 5,-5 -12.5,0 5,5 Z"
         id="path12565"
         inkscape:connector-curvature="0" />
    </marker>
    <marker
       style="overflow:visible"
       id="Arrow2Lend"
       refX="0"
       refY="0"
       orient="auto"
       inkscape:stockid="Arrow2Lend">
      <path
         transform="matrix(-1.1,0,0,-1.1,-1.1,0)"
         d="M 8.7185878,4.0337352 -2.2072895,0.01601326 8.7185884,-4.0017078 c -1.7454984,2.3720609 -1.7354408,5.6174519 -6e-7,8.035443 z"
         style="font-size:12px;fill-rule:evenodd;stroke-width:0.625;stroke-linejoin:round"
         id="path12553"
         inkscape:connector-curvature="0" />
    </marker>
    <marker
       style="overflow:visible"
       id="Tail"
       refX="0"
       refY="0"
       orient="auto"
       inkscape:stockid="Tail">
      <g
         transform="scale(-1.2)"
         id="g12526">
        <path
           style="fill:none;fill-rule:evenodd;stroke:#000000;stroke-width:0.80000001;stroke-linecap:round;marker-start:none;marker-end:none"
           d="M -3.8048674,-3.9585227 0.54352094,0"
           id="path12528"
           inkscape:connector-curvature="0" />
        <path
           style="fill:none;fill-rule:evenodd;stroke:#000000;stroke-width:0.80000001;stroke-linecap:round;marker-start:none;marker-end:none"
           d="M -1.2866832,-3.9585227 3.0617053,0"
           id="path12530"
           inkscape:connector-curvature="0" />
        <path
           style="fill:none;fill-rule:evenodd;stroke:#000000;stroke-width:0.80000001;stroke-linecap:round;marker-start:none;marker-end:none"
           d="M 1.3053582,-3.9585227 5.6537466,0"
           id="path12532"
           inkscape:connector-curvature="0" />
        <path
           style="fill:none;fill-rule:evenodd;stroke:#000000;stroke-width:0.80000001;stroke-linecap:round;marker-start:none;marker-end:none"
           d="M -3.8048674,4.1775838 0.54352094,0.21974226"
           id="path12534"
           inkscape:connector-curvature="0" />
        <path
           style="fill:none;fill-rule:evenodd;stroke:#000000;stroke-width:0.80000001;stroke-linecap:round;marker-start:none;marker-end:none"
           d="M -1.2866832,4.1775838 3.0617053,0.21974226"
           id="path12536"
           inkscape:connector-curvature="0" />
        <path
           style="fill:none;fill-rule:evenodd;stroke:#000000;stroke-width:0.80000001;stroke-linecap:round;marker-start:none;marker-end:none"
           d="M 1.3053582,4.1775838 5.6537466,0.21974226"
           id="path12538"
           inkscape:connector-curvature="0" />
      </g>
    </marker>
    <linearGradient
       id="linearGradient5503"
       inkscape:collect="always">
      <stop
         id="stop5505"
         offset="0"
         style="stop-color:#967240;stop-opacity:1;" />
      <stop
         id="stop5507"
         offset="1"
         style="stop-color:#967240;stop-opacity:0;" />
    </linearGradient>
    <linearGradient
       id="linearGradient15331">
      <stop
         id="stop15333"
         offset="0"
         style="stop-color:#cb72d4;stop-opacity:1;" />
      <stop
         id="stop15335"
         offset="1"
         style="stop-color:#2c5aa0;stop-opacity:0;" />
    </linearGradient>
    <linearGradient
       inkscape:collect="always"
       xlink:href="#linearGradient15974"
       id="linearGradient2229"
       gradientUnits="userSpaceOnUse"
       gradientTransform="matrix(1.2608311,0,0,1.2908932,-110.41315,-187.90658)"
       x1="436.12439"
       y1="612.63733"
       x2="436.12439"
       y2="672.14691" />
    <linearGradient
       inkscape:collect="always"
       xlink:href="#linearGradient32288"
       id="linearGradient38575"
       gradientUnits="userSpaceOnUse"
       gradientTransform="matrix(-1,0,0,1,868.49224,0.7142826)"
       x1="231.95473"
       y1="593.03125"
       x2="345.93576"
       y2="759.85046" />
    <linearGradient
       inkscape:collect="always"
       xlink:href="#linearGradient32288"
       id="linearGradient37599"
       gradientUnits="userSpaceOnUse"
       gradientTransform="rotate(180,434.29656,525.82395)"
       x1="231.95473"
       y1="593.03125"
       x2="345.93576"
       y2="759.85046" />
    <linearGradient
       inkscape:collect="always"
       xlink:href="#linearGradient32288"
       id="linearGradient36619"
       x1="231.95473"
       y1="593.03125"
       x2="345.93576"
       y2="759.85046"
       gradientUnits="userSpaceOnUse"
       gradientTransform="translate(1.7857143,0.7142826)" />
    <linearGradient
       inkscape:collect="always"
       id="linearGradient12998">
      <stop
         style="stop-color:#999999;stop-opacity:1;"
         offset="0"
         id="stop13000" />
      <stop
         style="stop-color:#999999;stop-opacity:0;"
         offset="1"
         id="stop13002" />
    </linearGradient>
    <linearGradient
       inkscape:collect="always"
       id="linearGradient15974">
      <stop
         style="stop-color:#ffe680;stop-opacity:1;"
         offset="0"
         id="stop15976" />
      <stop
         style="stop-color:#ffe680;stop-opacity:0;"
         offset="1"
         id="stop15978" />
    </linearGradient>
    <linearGradient
       inkscape:collect="always"
       id="linearGradient4202">
      <stop
         style="stop-color:#ff7c00;stop-opacity:1;"
         offset="0"
         id="stop4204" />
      <stop
         style="stop-color:#ff7c00;stop-opacity:0;"
         offset="1"
         id="stop4206" />
    </linearGradient>
    <linearGradient
       id="linearGradient6171">
      <stop
         style="stop-color:#ffa844;stop-opacity:1;"
         offset="0"
         id="stop6173" />
      <stop
         style="stop-color:#ff7a44;stop-opacity:0;"
         offset="1"
         id="stop6175" />
    </linearGradient>
    <linearGradient
       inkscape:collect="always"
       xlink:href="#linearGradient4199"
       id="linearGradient4227"
       gradientUnits="userSpaceOnUse"
       x1="396.17209"
       y1="669.76691"
       x2="356.11392"
       y2="669.76691" />
    <linearGradient
       inkscape:collect="always"
       xlink:href="#linearGradient4202"
       id="linearGradient4207"
       gradientUnits="userSpaceOnUse"
       x1="489.71796"
       y1="849.70813"
       x2="489.71796"
       y2="795.49951"
       gradientTransform="translate(-109.64456,0.9222485)" />
    <linearGradient
       inkscape:collect="always"
       xlink:href="#linearGradient4202"
       id="linearGradient4205"
       x1="489.71796"
       y1="849.70813"
       x2="489.71796"
       y2="795.49951"
       gradientUnits="userSpaceOnUse" />
    <linearGradient
       inkscape:collect="always"
       xlink:href="#linearGradient15974"
       id="linearGradient4203"
       gradientUnits="userSpaceOnUse"
       gradientTransform="matrix(0.919916,0,0,0.919916,141.98037,53.021066)"
       x1="381.00992"
       y1="782.03864"
       x2="381.00992"
       y2="859.91095" />
    <linearGradient
       inkscape:collect="always"
       xlink:href="#linearGradient15974"
       id="linearGradient4200"
       gradientUnits="userSpaceOnUse"
       gradientTransform="matrix(0.919916,0,0,0.919916,35.887848,69.090818)"
       x1="381.00992"
       y1="782.03864"
       x2="381.00992"
       y2="859.91095" />
    <linearGradient
       inkscape:collect="always"
       xlink:href="#linearGradient32288"
       id="linearGradient4198"
       gradientUnits="userSpaceOnUse"
       x1="435.53125"
       y1="843.25"
       x2="435.53125"
       y2="781.90625"
       gradientTransform="translate(-0.941639,11.111678)" />
    <linearGradient
       inkscape:collect="always"
       xlink:href="#linearGradient32288"
       id="linearGradient4192"
       gradientUnits="userSpaceOnUse"
       gradientTransform="matrix(1.0245601,0,0,1.0245601,-13.866842,-19.733886)"
       x1="231.95473"
       y1="593.03125"
       x2="345.93576"
       y2="759.85046" />
    <linearGradient
       inkscape:collect="always"
       xlink:href="#linearGradient32288"
       id="linearGradient4190"
       gradientUnits="userSpaceOnUse"
       gradientTransform="matrix(-1.0245601,0,0,1.0245601,873.98405,-20.251367)"
       x1="231.95473"
       y1="593.03125"
       x2="345.93576"
       y2="759.85046" />
    <linearGradient
       inkscape:collect="always"
       xlink:href="#linearGradient32288"
       id="linearGradient4180"
       x1="460.71429"
       y1="495.21933"
       x2="464.28574"
       y2="604.50507"
       gradientUnits="userSpaceOnUse" />
    <linearGradient
       inkscape:collect="always"
       xlink:href="#linearGradient12998"
       id="linearGradient4174"
       x1="435.54688"
       y1="725.375"
       x2="435.54688"
       y2="824.5625"
       gradientUnits="userSpaceOnUse" />
    <linearGradient
       inkscape:collect="always"
       id="linearGradient4199">
      <stop
         style="stop-color:#6b6bb5;stop-opacity:1;"
         offset="0"
         id="stop4201" />
      <stop
         style="stop-color:#6b6bb5;stop-opacity:0;"
         offset="1"
         id="stop4203" />
    </linearGradient>
    <linearGradient
       gradientTransform="matrix(1,0,0,0.9986444,-0.5279927,2.8569614)"
       gradientUnits="userSpaceOnUse"
       y2="1190.4386"
       x2="747.75232"
       y1="4.7924868e-07"
       x1="747.75232"
       id="linearGradient15337"
       xlink:href="#linearGradient15331"
       inkscape:collect="always" />
    <linearGradient
       gradientTransform="matrix(-0.4942666,0.2046754,0.2046754,0.4942666,-332.34973,375.36621)"
       y2="1135.1815"
       x2="-559.27789"
       y1="1365.2091"
       x1="-880.85303"
       gradientUnits="userSpaceOnUse"
       id="linearGradient15595"
       xlink:href="#linearGradient5503"
       inkscape:collect="always" />
    <linearGradient
       inkscape:collect="always"
       id="linearGradient6159"
       x1="-880.85303"
       y1="1365.2091"
       x2="-559.27789"
       gradientUnits="userSpaceOnUse"
       xlink:href="#linearGradient5503"
       y2="1135.1815" />
    <marker
       id="marker17828"
       inkscape:stockid="Arrow1Mend"
       orient="auto"
       style="overflow:visible"
       refX="0"
       refY="0">
      <path
         d="M 0,0 5,-5 -12.5,0 5,5 Z"
         transform="matrix(-0.4,0,0,-0.4,-4,0)"
         style="fill-rule:evenodd;stroke:#000000;stroke-width:1.00000003pt;marker-start:none"
         id="path17830"
         inkscape:connector-curvature="0" />
    </marker>
    <marker
       id="marker17824"
       inkscape:stockid="Arrow2Lend"
       orient="auto"
       style="overflow:visible"
       refX="0"
       refY="0">
      <path
         d="M 8.7185878,4.0337352 -2.2072895,0.01601326 8.7185884,-4.0017078 c -1.7454984,2.3720609 -1.7354408,5.6174519 -6e-7,8.035443 z"
         transform="matrix(-1.1,0,0,-1.1,-1.1,0)"
         style="font-size:12px;fill-rule:evenodd;stroke-width:0.625;stroke-linejoin:round"
         id="path17826"
         inkscape:connector-curvature="0" />
    </marker>
    <marker
       id="marker17808"
       inkscape:stockid="Tail"
       orient="auto"
       style="overflow:visible"
       refX="0"
       refY="0">
      <g
         id="g17810"
         transform="scale(-1.2)">
        <path
           id="path17812"
           d="M -3.8048674,-3.9585227 0.54352094,0"
           style="fill:none;fill-rule:evenodd;stroke:#000000;stroke-width:0.80000001;stroke-linecap:round;marker-start:none;marker-end:none"
           inkscape:connector-curvature="0" />
        <path
           id="path17814"
           d="M -1.2866832,-3.9585227 3.0617053,0"
           style="fill:none;fill-rule:evenodd;stroke:#000000;stroke-width:0.80000001;stroke-linecap:round;marker-start:none;marker-end:none"
           inkscape:connector-curvature="0" />
        <path
           id="path17816"
           d="M 1.3053582,-3.9585227 5.6537466,0"
           style="fill:none;fill-rule:evenodd;stroke:#000000;stroke-width:0.80000001;stroke-linecap:round;marker-start:none;marker-end:none"
           inkscape:connector-curvature="0" />
        <path
           id="path17818"
           d="M -3.8048674,4.1775838 0.54352094,0.21974226"
           style="fill:none;fill-rule:evenodd;stroke:#000000;stroke-width:0.80000001;stroke-linecap:round;marker-start:none;marker-end:none"
           inkscape:connector-curvature="0" />
        <path
           id="path17820"
           d="M -1.2866832,4.1775838 3.0617053,0.21974226"
           style="fill:none;fill-rule:evenodd;stroke:#000000;stroke-width:0.80000001;stroke-linecap:round;marker-start:none;marker-end:none"
           inkscape:connector-curvature="0" />
        <path
           id="path17822"
           d="M 1.3053582,4.1775838 5.6537466,0.21974226"
           style="fill:none;fill-rule:evenodd;stroke:#000000;stroke-width:0.80000001;stroke-linecap:round;marker-start:none;marker-end:none"
           inkscape:connector-curvature="0" />
      </g>
    </marker>
    <linearGradient
       id="linearGradient17796">
      <stop
         offset="0"
         id="stop17798"
         style="stop-color:#cbb2d4;stop-opacity:1;" />
      <stop
         offset="1"
         id="stop17800"
         style="stop-color:#2c5aa0;stop-opacity:0;" />
    </linearGradient>
    <linearGradient
       inkscape:collect="always"
       xlink:href="#linearGradient14566"
       id="linearGradient10350"
       gradientUnits="userSpaceOnUse"
       gradientTransform="translate(426.40002,320.383)"
       x1="280.54749"
       y1="270.03125"
       x2="283.96747"
       y2="349.33737" />
    <linearGradient
       inkscape:collect="always"
       xlink:href="#linearGradient18803"
       id="linearGradient10347"
       gradientUnits="userSpaceOnUse"
       gradientTransform="translate(426.40002,320.383)"
       x1="289.97559"
       y1="151.125"
       x2="290.56482"
       y2="250.00154" />
    <radialGradient
       inkscape:collect="always"
       xlink:href="#linearGradient25536"
       id="radialGradient10310"
       gradientUnits="userSpaceOnUse"
       gradientTransform="matrix(1,0,0,0.6014493,0,143.97646)"
       cx="175.83333"
       cy="361.25"
       fx="175.83333"
       fy="361.25"
       r="57.5" />
    <radialGradient
       inkscape:collect="always"
       xlink:href="#linearGradient25536"
       id="radialGradient10306"
       gradientUnits="userSpaceOnUse"
       gradientTransform="matrix(1,0,0,0.6014493,0,143.97646)"
       cx="175.83333"
       cy="361.25"
       fx="175.83333"
       fy="361.25"
       r="57.5" />
    <radialGradient
       inkscape:collect="always"
       xlink:href="#linearGradient25536"
       id="radialGradient10302"
       gradientUnits="userSpaceOnUse"
       gradientTransform="matrix(1,0,0,0.6014493,0,143.97646)"
       cx="175.83333"
       cy="361.25"
       fx="175.83333"
       fy="361.25"
       r="57.5" />
    <radialGradient
       inkscape:collect="always"
       xlink:href="#linearGradient25536"
       id="radialGradient10298"
       gradientUnits="userSpaceOnUse"
       gradientTransform="matrix(1,0,0,0.6014493,0,143.97646)"
       cx="175.83333"
       cy="361.25"
       fx="175.83333"
       fy="361.25"
       r="57.5" />
    <radialGradient
       inkscape:collect="always"
       xlink:href="#linearGradient32288"
       id="radialGradient10294"
       gradientUnits="userSpaceOnUse"
       cx="472.58304"
       cy="208.73425"
       fx="472.58304"
       fy="208.73425"
       r="37.71236" />
    <linearGradient
       inkscape:collect="always"
       xlink:href="#linearGradient26521"
       id="linearGradient10287"
       gradientUnits="userSpaceOnUse"
       gradientTransform="matrix(1.1031825,0,0,1.1031825,383.68544,297.59371)"
       x1="381.69125"
       y1="323.65848"
       x2="381.69125"
       y2="161.87445" />
    <linearGradient
       inkscape:collect="always"
       xlink:href="#linearGradient24407"
       id="linearGradient10275"
       gradientUnits="userSpaceOnUse"
       gradientTransform="translate(294.40676,247.3153)"
       x1="513.95605"
       y1="406.98969"
       x2="513.00153"
       y2="384.76077" />
    <linearGradient
       id="linearGradient26521"
       inkscape:collect="always">
      <stop
         id="stop26523"
         offset="0"
         style="stop-color:#502d16;stop-opacity:1;" />
      <stop
         id="stop26525"
         offset="1"
         style="stop-color:#502d16;stop-opacity:0;" />
    </linearGradient>
    <linearGradient
       id="linearGradient25536"
       inkscape:collect="always">
      <stop
         id="stop25538"
         offset="0"
         style="stop-color:#225500;stop-opacity:1;" />
      <stop
         id="stop25540"
         offset="1"
         style="stop-color:#225500;stop-opacity:0;" />
    </linearGradient>
    <linearGradient
       id="linearGradient24407"
       inkscape:collect="always">
      <stop
         id="stop24409"
         offset="0"
         style="stop-color:#552200;stop-opacity:1;" />
      <stop
         id="stop24411"
         offset="1"
         style="stop-color:#552200;stop-opacity:0;" />
    </linearGradient>
    <linearGradient
       id="linearGradient18803"
       inkscape:collect="always">
      <stop
         id="stop18805"
         offset="0"
         style="stop-color:#2c5aa0;stop-opacity:1;" />
      <stop
         id="stop18807"
         offset="1"
         style="stop-color:#2c5aa0;stop-opacity:0;" />
    </linearGradient>
    <linearGradient
       id="linearGradient14566"
       inkscape:collect="always">
      <stop
         id="stop14568"
         offset="0"
         style="stop-color:#803300;stop-opacity:1;" />
      <stop
         id="stop14570"
         offset="1"
         style="stop-color:#803300;stop-opacity:0;" />
    </linearGradient>
    <linearGradient
       id="linearGradient23254"
       inkscape:collect="always">
      <stop
         id="stop23256"
         offset="0"
         style="stop-color:#333333;stop-opacity:1;" />
      <stop
         id="stop23258"
         offset="1"
         style="stop-color:#333333;stop-opacity:0;" />
    </linearGradient>
    <filter
       id="filter5195">
      <feGaussianBlur
         id="feGaussianBlur5197"
         stdDeviation="3.6000515"
         inkscape:collect="always" />
    </filter>
    <linearGradient
       id="linearGradient22847"
       inkscape:collect="always">
      <stop
         id="stop22849"
         offset="0"
         style="stop-color:#4d4d4d;stop-opacity:1;" />
      <stop
         id="stop22851"
         offset="1"
         style="stop-color:#4d4d4d;stop-opacity:0;" />
    </linearGradient>
    <radialGradient
       gradientUnits="userSpaceOnUse"
       gradientTransform="matrix(6.3098775,1.8036137e-7,-9.7608697e-7,2.8098424,-1590.7932,-512.50596)"
       r="0.84134614"
       fy="283.17709"
       fx="299.59137"
       cy="283.17709"
       cx="299.59137"
       id="radialGradient18332"
       xlink:href="#linearGradient32288"
       inkscape:collect="always" />
    <radialGradient
       r="0.84134614"
       fy="283.17709"
       fx="299.59137"
       cy="283.17709"
       cx="299.59137"
       gradientTransform="matrix(6.3098775,1.8036137e-7,-9.7608697e-7,2.8098424,-1590.7932,-512.50596)"
       gradientUnits="userSpaceOnUse"
       id="radialGradient18345"
       xlink:href="#linearGradient32288"
       inkscape:collect="always" />
    <radialGradient
       gradientUnits="userSpaceOnUse"
       gradientTransform="matrix(1,0,0,0.6014493,0,143.97646)"
       r="57.5"
       fy="361.25"
       fx="175.83333"
       cy="361.25"
       cx="175.83333"
       id="radialGradient25542"
       xlink:href="#linearGradient25536"
       inkscape:collect="always" />
    <marker
       id="marker21877"
       inkscape:stockid="Arrow1Mend"
       orient="auto"
       style="overflow:visible"
       refX="0"
       refY="0">
      <path
         d="M 0,0 5,-5 -12.5,0 5,5 Z"
         transform="matrix(-0.4,0,0,-0.4,-4,0)"
         style="fill-rule:evenodd;stroke:#000000;stroke-width:1.00000003pt;marker-start:none"
         id="path21879"
         inkscape:connector-curvature="0" />
    </marker>
    <marker
       id="marker21873"
       inkscape:stockid="Arrow2Lend"
       orient="auto"
       style="overflow:visible"
       refX="0"
       refY="0">
      <path
         d="M 8.7185878,4.0337352 -2.2072895,0.01601326 8.7185884,-4.0017078 c -1.7454984,2.3720609 -1.7354408,5.6174519 -6e-7,8.035443 z"
         transform="matrix(-1.1,0,0,-1.1,-1.1,0)"
         style="font-size:12px;fill-rule:evenodd;stroke-width:0.625;stroke-linejoin:round"
         id="path21875"
         inkscape:connector-curvature="0" />
    </marker>
    <marker
       id="marker21857"
       inkscape:stockid="Tail"
       orient="auto"
       style="overflow:visible"
       refX="0"
       refY="0">
      <g
         id="g21859"
         transform="scale(-1.2)">
        <path
           id="path21861"
           d="M -3.8048674,-3.9585227 0.54352094,0"
           style="fill:none;fill-rule:evenodd;stroke:#000000;stroke-width:0.80000001;stroke-linecap:round;marker-start:none;marker-end:none"
           inkscape:connector-curvature="0" />
        <path
           id="path21863"
           d="M -1.2866832,-3.9585227 3.0617053,0"
           style="fill:none;fill-rule:evenodd;stroke:#000000;stroke-width:0.80000001;stroke-linecap:round;marker-start:none;marker-end:none"
           inkscape:connector-curvature="0" />
        <path
           id="path21865"
           d="M 1.3053582,-3.9585227 5.6537466,0"
           style="fill:none;fill-rule:evenodd;stroke:#000000;stroke-width:0.80000001;stroke-linecap:round;marker-start:none;marker-end:none"
           inkscape:connector-curvature="0" />
        <path
           id="path21867"
           d="M -3.8048674,4.1775838 0.54352094,0.21974226"
           style="fill:none;fill-rule:evenodd;stroke:#000000;stroke-width:0.80000001;stroke-linecap:round;marker-start:none;marker-end:none"
           inkscape:connector-curvature="0" />
        <path
           id="path21869"
           d="M -1.2866832,4.1775838 3.0617053,0.21974226"
           style="fill:none;fill-rule:evenodd;stroke:#000000;stroke-width:0.80000001;stroke-linecap:round;marker-start:none;marker-end:none"
           inkscape:connector-curvature="0" />
        <path
           id="path21871"
           d="M 1.3053582,4.1775838 5.6537466,0.21974226"
           style="fill:none;fill-rule:evenodd;stroke:#000000;stroke-width:0.80000001;stroke-linecap:round;marker-start:none;marker-end:none"
           inkscape:connector-curvature="0" />
      </g>
    </marker>
    <radialGradient
       r="37.71236"
       fy="208.73425"
       fx="472.58304"
       cy="208.73425"
       cx="472.58304"
       gradientUnits="userSpaceOnUse"
       id="radialGradient21966"
       xlink:href="#linearGradient32288"
       inkscape:collect="always" />
    <inkscape:perspective
       sodipodi:type="inkscape:persp3d"
       id="perspective280"
       inkscape:vp_x="-50 : 600 : 1"
       inkscape:vp_y="0 : 1000 : 0"
       inkscape:vp_z="700 : 600 : 1"
       inkscape:persp3d-origin="300 : 400 : 1" />
    <inkscape:perspective
       sodipodi:type="inkscape:persp3d"
       inkscape:vp_x="0 : 526.18109 : 1"
       inkscape:vp_y="0 : 1000 : 0"
       inkscape:vp_z="744.09447 : 526.18109 : 1"
       inkscape:persp3d-origin="372.04725 : 350.78739 : 1"
       id="perspective6008" />
  </defs>
  <sodipodi:namedview
     pagecolor="#ffffff"
     bordercolor="#666666"
     borderopacity="1"
     objecttolerance="10"
     gridtolerance="10"
     guidetolerance="10"
     inkscape:pageopacity="0"
     inkscape:pageshadow="2"
     inkscape:window-width="1853"
     inkscape:window-height="1025"
     id="namedview3897"
     showgrid="false"
     inkscape:zoom="0.8025"
     inkscape:cx="730.82355"
     inkscape:cy="259.04756"
     inkscape:window-x="67"
     inkscape:window-y="27"
     inkscape:window-maximized="1"
     inkscape:current-layer="g3893"
     units="px"
     fit-margin-top="10"
     fit-margin-left="10"
     fit-margin-right="10"
     fit-margin-bottom="10" />
  <metadata
     id="metadata3883">
Created by potrace 1.11, written by Peter Selinger 2001-2013
<rdf:RDF>
  <cc:Work
     rdf:about="">
    <dc:format>image/svg+xml</dc:format>
    <dc:type
       rdf:resource="http://purl.org/dc/dcmitype/StillImage" />
    <dc:title>Staticmanlab Logo</dc:title>
    <cc:license
       rdf:resource="http://creativecommons.org/licenses/by-sa/4.0/" />
    <dc:date>21-11-2018</dc:date>
    <dc:creator>
      <cc:Agent>
        <dc:title>Vincent Tam</dc:title>
      </cc:Agent>
    </dc:creator>
    <dc:description>Logo for @staticmanlab, a custom API instance for testing Staticman v3.  Avatar made from [Wikimedia's GitLab logo](commons.wikimedia.org/wiki/File:GitLab_Logo.svg) by Darby under CC-BY-SA 4.0 and Staticman logo on [GitHub](https://git.io/fAl30) by Erlen Masson under MIT.</dc:description>
    <dc:subject>
      <rdf:Bag>
        <rdf:li>staticman</rdf:li>
        <rdf:li>gitlab</rdf:li>
      </rdf:Bag>
    </dc:subject>
    <dc:source>Wiki, GitLab, Staticman</dc:source>
    <dc:rights>
      <cc:Agent>
        <dc:title>GitLab logo: Darby CC-BY-SA 4.0; Staticman logo: Erlen Masson M</dc:title>
      </cc:Agent>
    </dc:rights>
  </cc:Work>
  <cc:License
     rdf:about="http://creativecommons.org/licenses/by-sa/4.0/">
    <cc:permits
       rdf:resource="http://creativecommons.org/ns#Reproduction" />
    <cc:permits
       rdf:resource="http://creativecommons.org/ns#Distribution" />
    <cc:requires
       rdf:resource="http://creativecommons.org/ns#Notice" />
    <cc:requires
       rdf:resource="http://creativecommons.org/ns#Attribution" />
    <cc:permits
       rdf:resource="http://creativecommons.org/ns#DerivativeWorks" />
    <cc:requires
       rdf:resource="http://creativecommons.org/ns#ShareAlike" />
  </cc:License>
</rdf:RDF>
</metadata>
  <g
     transform="matrix(0.1,0,0,-0.1,-98.622748,637.82117)"
     id="g3893"
     style="fill:#000000;stroke:none">
    <flowRoot
       xml:space="preserve"
       id="flowRoot2476"
       style="font-style:normal;font-weight:normal;font-size:13.33333397px;line-height:1.25;font-family:sans-serif;letter-spacing:0px;word-spacing:0px;fill:#e24329;fill-opacity:1;stroke:none"
       transform="matrix(26.552531,0,0,-26.552531,-5122.7457,8220.2814)"><flowRegion
         id="flowRegion2478"
         style="font-size:13.33333397px;fill:#e24329;fill-opacity:1"><rect
           id="rect2480"
           width="296.96576"
           height="50.859814"
           x="100.31152"
           y="266.35513"
           style="font-size:13.33333397px;fill:#e24329;fill-opacity:1" /></flowRegion><flowPara
         id="flowPara2482"
         style="font-size:13.33333397px;fill:#e24329;fill-opacity:1">GitLab icon by Darby under CC-BY-SA 4.0</flowPara><flowPara
         style="font-size:13.33333397px;fill:#e24329;fill-opacity:1"
         id="flowPara2494">Staticman logo by Erlen Masson under MIT</flowPara></flowRoot>    <g
       id="g3203"
       transform="translate(-1.3934427e-5)">
      <g
         transform="matrix(1.5124101,0,0,1.5124101,-2447.9417,1407.861)"
         id="g42">
        <g
           id="g108">
          <path
             inkscape:connector-curvature="0"
             id="path3885"
             d="m 1356.5185,2013.5185 c -26.3694,0.6042 -56.0127,-22.504 -105.5127,-76.8164 -190,-208 -458.00285,-298.999 -723.00288,-243.9991 -111.00001,23.0001 -257.00585,99.9952 -351.00586,184.9952 -80.999995,73 -90.00097,77.0039 -131.000967,59.0039 -48.0000007,-22 -49.9970706,-52.0049 -11.997071,-190.0049 C 241.99902,987.6972 831.0029,366.70316 1578.0029,117.70309 c 216,-70.999939 493.9941,-124.0067896 563.9941,-107.00677 44,10.99995 48.0029,40.004851 48.0029,325.00484 0,146.99996 5.0049,300.99706 10.0049,341.99706 29,226 127.9961,462.00188 270.9961,652.00188 l 46.9922,63.0029 -33.999,20.9913 c -33,20 -37.9952,42.0048 -4.9952,25.0049 9,-5 140.0059,-43.001 291.0059,-86.001 151,-43 296.998,-86.0059 322.998,-96.0059 26.0001,-11 50.002,-18.999 52.002,-18.999 3,0 4.9951,35.0029 4.9951,78.003 v 77.0067 l -64.9951,33.9991 c -80,41 -177.002,112.9941 -232.002,173.9942 l -43.0077,47.0067 -139.9952,249.9903 -22.0019,-3.999 c -13,-3 -51.9932,-9.9961 -87.9932,-15.9961 -143,-26 -297.0117,-79.9971 -417.0117,-146.9971 -63,-35 -112.998,-71.0078 -307.998,-223.0078 -206,-161 -419.9902,-233.9941 -684.9903,-233.9941 -256.99992,0 -465.00481,68.9971 -670.00481,221.9971 -103.00001,75.9999 -112.99707,92.998 -41.99707,67.998 23,-8 85.9912,-20.9971 140.99121,-26.9971 224.00002,-28 451.00387,33.0019 644.00387,172.002 37,27 69.001,48.999 71.001,48.999 2,0 7.001,-17.002 11.001,-37.0019 15,-81 97.0029,-253.9942 153.0029,-323.9942 l 19.9951,-24.0088 56.9971,18.999 c 89,31 90.999,34.001 48.999,86.001 -49,61 -119.9883,211.0098 -137.9883,290.0097 -8,36 -18.0019,97.9884 -22.0019,137.9883 -6,62.0001 -11.0069,76.003 -32.0069,93.0029 -12.1875,9.375 -23.4924,14.5496 -35.4785,14.8243 z m 3143.4814,-125.8155 -150,-247.998 -62.0069,-62.0068 c -63,-62 -161.9951,-132.9961 -229.995,-165.9961 l -37.9981,-18.0029 v -78.0029 c 0,-43.0001 1.9951,-78.003 4.9951,-78.003 2,0 25.998,8.9991 52.998,18.999 27,11.0001 170.003,54.0059 318.003,96.0059 148,41 279.0058,80.0049 291.0058,85.0048 13,5.0001 24.9932,6 27.9932,0 3,-4.9999 -2.9971,-10.9999 -11.9971,-15 -10,-3 -25.9912,-11.999 -35.9912,-18.999 -16,-12.9999 -14.0127,-19.0116 36.9873,-87.0117 30,-39.9999 76.0117,-110.9873 102.0117,-156.9873 26,-46 57.9902,-89.0136 69.9902,-94.0137 36,-16.9999 75.9981,3.003 97.9981,48.003 25,50 34.0107,241.9971 16.0107,326.997 -27,134.0001 -129.0117,280.0108 -252.0117,361.0108 -57,38 -175.995,85.001 -214.995,86.0009 z"
             style="fill:#fc6d26;fill-opacity:1;stroke-width:1" />
          <g
             style="fill:none;fill-rule:evenodd;stroke:none;stroke-width:1"
             transform="matrix(8.6336684,0,0,-8.6336684,2678.9347,2894.7727)"
             id="Page-1"
             sketch:type="MSPage">
            <g
               id="Fill-1-+-Group-24"
               sketch:type="MSLayerGroup">
              <g
                 id="Group-24"
                 sketch:type="MSShapeGroup">
                <g
                   id="Group">
                  <path
                     style="fill:#e24329"
                     inkscape:connector-curvature="0"
                     d="m 105.0614,193.655 v 0 l 38.64,-118.921 h -77.28 z"
                     id="Fill-4" />
                  <path
                     style="fill:#fc6d26"
                     inkscape:connector-curvature="0"
                     d=""
                     id="Fill-6" />
                  <path
                     style="fill:#fc6d26"
                     inkscape:connector-curvature="0"
                     d="M 105.0614,193.6548 66.4214,74.7338 H 12.2684 Z"
                     id="Fill-8" />
                  <path
                     style="fill:#fc6d26"
                     inkscape:connector-curvature="0"
                     d=""
                     id="Fill-10" />
                  <path
                     style="fill:#fca326"
                     inkscape:connector-curvature="0"
                     d="m 12.2685,74.7341 v 0 l -11.742,36.139 c -1.071,3.296 0.102,6.907 2.906,8.944 l 101.629,73.838 z"
                     id="Fill-12" />
                  <path
                     style="fill:#fc6d26"
                     inkscape:connector-curvature="0"
                     d=""
                     id="Fill-14" />
                  <path
                     style="fill:#e24329"
                     inkscape:connector-curvature="0"
                     d="m 12.2685,74.7342 h 54.153 L 43.1485,3.1092 c -1.197,-3.686 -6.411,-3.685 -7.608,0 z"
                     id="Fill-16" />
                  <path
                     style="fill:#fc6d26"
                     inkscape:connector-curvature="0"
                     d="m 105.0614,193.6548 38.64,-118.921 h 54.153 z"
                     id="Fill-18" />
                  <path
                     style="fill:#fca326"
                     inkscape:connector-curvature="0"
                     d="m 197.8544,74.7341 v 0 l 11.742,36.139 c 1.071,3.296 -0.102,6.907 -2.906,8.944 l -101.629,73.838 z"
                     id="Fill-20" />
                  <path
                     style="fill:#e24329"
                     inkscape:connector-curvature="0"
                     d="m 197.8544,74.7342 h -54.153 l 23.273,-71.625 c 1.197,-3.686 6.411,-3.685 7.608,0 z"
                     id="Fill-22" />
                </g>
              </g>
            </g>
          </g>
          <path
             inkscape:connector-curvature="0"
             style="fill:#fc6d26;fill-opacity:1"
             id="path3891"
             d="m 3220,1527.6981 c -19,-19 -20,-33 -20,-264 v -245 l 26,-20 c 15,-12 33,-21 40,-21 7,0 82,24 165,54 l 153,54 155,-55 c 234,-83 231,-87 231,238 0,214 -1,228 -21,253 -13,16 -30,26 -47,26 -15,0 -92,-23 -172,-52 l -144,-52 -151,52 c -82,29 -160,52 -172,52 -13,0 -32,-9 -43,-20 z m 205,-185 c 38,-14 73,-29 78,-34 5,-5 7,-27 5,-51 l -3,-42 -77,-28 c -42,-15 -78,-27 -80,-25 -3,3 2,205 5,205 1,0 33,-11 72,-25 z m 395,-75 c 0,-78 -3,-100 -14,-100 -7,0 -42,11 -77,24 l -64,24 -3,49 -3,49 73,26 c 40,15 76,27 81,27 4,1 7,-44 7,-99 z" />
        </g>
      </g>
      <g
         transform="matrix(1.5124101,0,0,1.5124101,-2425.4957,639.44938)"
         style="fill:#ff0000;fill-opacity:1"
         id="g3989">
        <g
           transform="matrix(58.310234,-73.196787,-73.196787,-58.310234,4203.1568,1545.6085)"
           style="clip-rule:nonzero;fill:#ff0000;fill-opacity:1"
           clip-path="url(#clip1)"
           id="g101">
          <g
             style="fill:#ff0000;fill-opacity:1"
             id="g99">
            <use
               style="fill:#ff0000;fill-opacity:1"
               height="100%"
               width="100%"
               xlink:href="#glyph0-1"
               x="0"
               y="6.8099999"
               id="use97" />
          </g>
        </g>
        <g
           transform="matrix(42.590873,33.928863,33.928863,-42.590873,4345.9,1501.0826)"
           style="clip-rule:nonzero;fill:#ff0000;fill-opacity:1"
           clip-path="url(#clip1-5)"
           id="g3916">
          <g
             style="fill:#ff0000;fill-opacity:1"
             id="g3914">
            <use
               style="fill:#ff0000;fill-opacity:1"
               height="100%"
               width="100%"
               xlink:href="#glyph0-1-3"
               x="0"
               y="6.9229999"
               id="use3912" />
          </g>
        </g>
      </g>
    </g>
    <flowRoot
       xml:space="preserve"
       id="flowRoot2484"
       style="font-style:normal;font-weight:normal;font-size:8px;line-height:1.25;font-family:sans-serif;letter-spacing:0px;word-spacing:0px;fill:#000000;fill-opacity:1;stroke:none"><flowRegion
         id="flowRegion2486"><rect
           id="rect2488"
           width="241.12149"
           height="226.16823"
           x="-142.05608"
           y="50.155762" /></flowRegion><flowPara
         id="flowPara2490" /></flowRoot>    <flowRoot
       xml:space="preserve"
       id="flowRoot1738"
       style="font-style:normal;font-variant:normal;font-weight:normal;font-stretch:normal;font-size:192px;line-height:1.25;font-family:sans-serif;-inkscape-font-specification:'sans-serif, Normal';font-variant-ligatures:normal;font-variant-caps:normal;font-variant-numeric:normal;font-feature-settings:normal;text-align:start;letter-spacing:0px;word-spacing:0px;writing-mode:lr-tb;text-anchor:start;fill:#000000;fill-opacity:1;stroke:none"
       transform="matrix(13.001451,0,0,-13.001451,-2655.428,7817.0831)"><flowRegion
         id="flowRegion1740"
         style="font-style:normal;font-variant:normal;font-weight:normal;font-stretch:normal;font-size:192px;font-family:sans-serif;-inkscape-font-specification:'sans-serif, Normal';font-variant-ligatures:normal;font-variant-caps:normal;font-variant-numeric:normal;font-feature-settings:normal;text-align:start;writing-mode:lr-tb;text-anchor:start"><rect
           id="rect1742"
           width="247.97507"
           height="252.9595"
           x="687.85046"
           y="214.64174"
           style="font-style:normal;font-variant:normal;font-weight:normal;font-stretch:normal;font-size:192px;font-family:sans-serif;-inkscape-font-specification:'sans-serif, Normal';font-variant-ligatures:normal;font-variant-caps:normal;font-variant-numeric:normal;font-feature-settings:normal;text-align:start;writing-mode:lr-tb;text-anchor:start" /></flowRegion><flowPara
         id="flowPara1744">+</flowPara></flowRoot>    <g
       inkscape:label="Layer 1"
       id="layer1"
       transform="matrix(79.719505,0,0,-79.719505,9414.2273,6148.5232)">
      <path
         inkscape:export-ydpi="97.71096"
         inkscape:export-xdpi="97.71096"
         inkscape:export-filename="/home/josephk/Bureau/www/framacss/img/biglogo.png"
         inkscape:connector-curvature="0"
         d="m 7.0505792,19.636734 c -0.28753,-1.24509 -0.0144,-2.60653 0.76922,-3.62184 0.98791,-1.36769 2.8000098,-1.98303 4.4378598,-1.73263 1.62738,0.26798 3.0512,1.52634 3.47415,3.12778 0.37794,1.24155 0.2508,2.65325 -0.47791,3.74514 -0.67209,1.10042 -1.86466,1.81802 -3.13007,2.00212 -1.29178,0.24071 -2.6686398,-0.14932 -3.6511798,-1.01936 -0.74982,-0.63639 -1.231,-1.54311 -1.42207,-2.50121 z"
         style="display:inline;fill:#6a5687;fill-opacity:1;stroke:#6a5687;stroke-width:0.47148672;stroke-miterlimit:4;stroke-dasharray:none;stroke-opacity:1"
         id="path2885-0" />
      <g
         inkscape:export-ydpi="97.71096"
         inkscape:export-xdpi="97.71096"
         inkscape:export-filename="/home/josephk/Bureau/www/framacss/img/biglogo.png"
         id="g3934"
         transform="matrix(0.12671803,0,0,0.12671803,6.6768592,-71.847116)"
         style="display:inline;fill:#eb7239;fill-opacity:1">
        <path
           style="fill:#eb7239;fill-opacity:1;stroke:none"
           d="m 266.05688,662.62964 c -5.06605,1.49312 2.53872,6.05651 3.03822,8.98435 1.40892,2.9493 4.36632,4.98744 6.806,7.12979 4.36237,3.28368 8.50309,7.00504 13.73127,8.87149 7.24409,4.97783 11.06985,11.74361 12.96634,24.70447 -9.08991,-2.17901 -15.96923,-2.83244 -31.39817,-12.58792 16.07761,13.45629 25.98461,19.2946 31.91959,24.61446 5.75253,6.20655 16.11417,16.71079 26.033,32.33675 0.0472,-20.28344 -8.50609,-45.21733 -19.52164,-62.22272 -10.33801,-13.68807 -24.56125,-24.25619 -40.18044,-31.18242 -1.07809,-0.41847 -2.22799,-0.72036 -3.39417,-0.64825 z"
           id="path3926"
           inkscape:connector-curvature="0"
           sodipodi:nodetypes="ccccccccccc" />
      </g>
      <path
         inkscape:export-ydpi="97.71096"
         inkscape:export-xdpi="97.71096"
         inkscape:export-filename="/home/josephk/Bureau/www/framacss/img/biglogo.png"
         inkscape:connector-curvature="0"
         d="m 13.403189,31.062894 c -0.2178,-0.94314 -0.0109,-1.97439 0.58266,-2.74346 0.74831,-1.03597 2.12093,-1.50208 3.36157,-1.31238 1.2327,0.20296 2.31117,1.15613 2.63155,2.36917 0.28628,0.94046 0.18996,2.00978 -0.36198,2.83685 -0.5091,0.83353 -1.41245,1.3771 -2.37096,1.51653 -0.97849,0.18234 -2.02142,-0.1131 -2.76567,-0.77212 -0.56796,-0.48204 -0.93243,-1.16886 -1.07717,-1.89459 z"
         style="display:inline;fill:#6a5687;fill-opacity:1;stroke:#6a5687;stroke-width:0.43052286;stroke-miterlimit:4;stroke-dasharray:none;stroke-opacity:1"
         id="path2885-07" />
      <path
         inkscape:export-ydpi="97.71096"
         inkscape:export-xdpi="97.71096"
         inkscape:export-filename="/home/josephk/Bureau/www/framacss/img/biglogo.png"
         inkscape:connector-curvature="0"
         d="m 49.532539,36.571844 c -0.49545,-0.18745 -1.06992,-0.15108 -1.53063,0.11428 -0.61684,0.32965 -0.97053,1.03976 -0.95889,1.72651 0.0195,0.68342 0.45707,1.33838 1.09136,1.60131 0.48897,0.2244 1.07595,0.25079 1.56506,0.0122 0.48947,-0.2148 0.85067,-0.66473 0.99676,-1.17428 0.17082,-0.51724 0.0873,-1.10455 -0.2154,-1.55662 -0.21966,-0.34345 -0.56532,-0.59161 -0.94826,-0.72346 z"
         style="display:inline;fill:#eb7239;fill-opacity:1;stroke:#eb7239;stroke-width:0.41000909;stroke-miterlimit:4;stroke-dasharray:none;stroke-opacity:1"
         id="path2885-0-6" />
      <path
         inkscape:export-ydpi="97.71096"
         inkscape:export-xdpi="97.71096"
         inkscape:export-filename="/home/josephk/Bureau/www/framacss/img/biglogo.png"
         inkscape:connector-curvature="0"
         d="m 47.808119,42.950474 c -0.411,-0.1555 -0.88754,-0.12534 -1.26973,0.0948 -0.51169,0.27346 -0.8051,0.86253 -0.79543,1.43223 0.0161,0.56693 0.37915,1.11023 0.90532,1.32835 0.40563,0.18615 0.89255,0.20803 1.29829,0.0102 0.40603,-0.17819 0.70566,-0.55143 0.82685,-0.97413 0.14171,-0.42907 0.0724,-0.91627 -0.17867,-1.29128 -0.18222,-0.28491 -0.46897,-0.49076 -0.78662,-0.60014 z"
         style="display:inline;fill:#eb7239;fill-opacity:1;stroke:#eb7239;stroke-width:0.41000909;stroke-miterlimit:4;stroke-dasharray:none;stroke-opacity:1"
         id="path2885-07-2" />
      <path
         inkscape:export-ydpi="97.71096"
         inkscape:export-xdpi="97.71096"
         inkscape:export-filename="/home/josephk/Bureau/www/framacss/img/biglogo.png"
         inkscape:connector-curvature="0"
         d="m 18.811649,40.713344 c -0.15859,-0.68673 -0.008,-1.43761 0.42426,-1.9976 0.54486,-0.75432 1.5443,-1.0937 2.44765,-0.95558 0.89757,0.14778 1.68283,0.84181 1.91611,1.72507 0.20845,0.68477 0.13832,1.46337 -0.26357,2.06559 -0.37068,0.60692 -1.02844,1.00271 -1.72636,1.10423 -0.71247,0.13277 -1.47186,-0.0824 -2.01377,-0.5622 -0.41355,-0.35099 -0.67893,-0.85109 -0.78432,-1.37951 z"
         style="display:inline;fill:#6a5687;fill-opacity:1;stroke:#6a5687;stroke-width:0.31347674;stroke-miterlimit:4;stroke-dasharray:none;stroke-opacity:1"
         id="path2885-07-0" />
      <g
         id="text4374-19"
         style="font-style:normal;font-weight:normal;font-size:19.89788818px;line-height:125%;font-family:Sans;letter-spacing:0px;word-spacing:0px;display:inline;fill:#000000;fill-opacity:1;stroke:none">
        <path
           id="path3039"
           style="font-style:normal;font-variant:normal;font-stretch:normal;font-family:'DejaVu Sans';-inkscape-font-specification:'DejaVu Sans Bold';fill:#6a5687;fill-opacity:1"
           d="m 1.747666,51.261925 h 5.4454925 v 1.525157 H 3.7654856 v 1.457023 H 6.988756 v 1.525157 H 3.7654856 v 3.31761 H 1.747666 v -7.824947"
           inkscape:connector-curvature="0" />
        <path
           id="path3041"
           style="font-style:normal;font-variant:normal;font-stretch:normal;font-family:'DejaVu Sans';-inkscape-font-specification:'DejaVu Sans Bold';fill:#6a5687;fill-opacity:1"
           d="m 12.670097,54.815384 c -0.164226,-0.07687 -0.328446,-0.13277 -0.492662,-0.167715 -0.160732,-0.03843 -0.323205,-0.05765 -0.487422,-0.05765 -0.482184,4e-6 -0.854301,0.15549 -1.116352,0.466457 -0.258563,0.307481 -0.387843,0.749479 -0.38784,1.325996 v 2.704402 H 8.3095104 v -5.870021 h 1.8763106 v 0.964361 c 0.241087,-0.384341 0.517117,-0.663866 0.828092,-0.838575 0.314461,-0.178191 0.690072,-0.267289 1.126834,-0.267295 0.06289,6e-6 0.131023,0.0035 0.204403,0.01048 0.07337,0.0035 0.179939,0.01398 0.319706,0.03145 l 0.0052,1.698113"
           inkscape:connector-curvature="0" />
        <path
           id="path3043"
           style="font-style:normal;font-variant:normal;font-stretch:normal;font-family:'DejaVu Sans';-inkscape-font-specification:'DejaVu Sans Bold';fill:#6a5687;fill-opacity:1"
           d="m 16.244521,56.445363 c -0.391338,2e-6 -0.686586,0.06639 -0.885744,0.199161 -0.19567,0.132777 -0.293504,0.328444 -0.293501,0.587002 -3e-6,0.237598 0.07861,0.42453 0.235849,0.560797 0.160724,0.132775 0.382596,0.199162 0.665618,0.199161 0.352896,10e-7 0.649891,-0.125785 0.890985,-0.377358 0.241086,-0.255065 0.361631,-0.573024 0.361636,-0.953879 v -0.214884 h -0.974843 m 2.866876,-0.707547 v 3.349056 h -1.892033 v -0.870021 c -0.251577,0.356395 -0.534596,0.616702 -0.849057,0.780923 -0.314469,0.160726 -0.697068,0.24109 -1.147799,0.24109 -0.607968,0 -1.102377,-0.17645 -1.483228,-0.52935 -0.377359,-0.356394 -0.566038,-0.817609 -0.566038,-1.383648 0,-0.688327 0.235848,-1.193219 0.707547,-1.514675 0.475191,-0.32145 1.219425,-0.482177 2.232705,-0.48218 h 1.10587 V 55.18226 c -5e-6,-0.296991 -0.117056,-0.513622 -0.351153,-0.649895 -0.234106,-0.139758 -0.599235,-0.209639 -1.095388,-0.209644 -0.40182,5e-6 -0.775684,0.04019 -1.121594,0.120545 -0.345913,0.08037 -0.667366,0.200913 -0.96436,0.361636 v -1.430818 c 0.401815,-0.09783 0.805379,-0.171203 1.210692,-0.220126 0.405308,-0.05241 0.810619,-0.07861 1.215933,-0.07862 1.058695,6e-6 1.822147,0.209649 2.290356,0.628931 0.471692,0.415798 0.707541,1.093645 0.707547,2.033543"
           inkscape:connector-curvature="0" />
        <path
           id="path3045"
           style="font-style:normal;font-variant:normal;font-stretch:normal;font-family:'DejaVu Sans';-inkscape-font-specification:'DejaVu Sans Bold';fill:#6a5687;fill-opacity:1"
           d="m 26.307414,54.191694 c 0.237589,-0.363377 0.518861,-0.639407 0.843815,-0.828092 0.328434,-0.192168 0.688322,-0.288254 1.079665,-0.28826 0.674344,6e-6 1.187971,0.207902 1.54088,0.62369 0.35289,0.415798 0.52934,1.020269 0.52935,1.813417 v 3.574423 h -1.886792 v -3.060796 c 0.0035,-0.04542 0.0052,-0.09259 0.0052,-0.14151 0.0035,-0.04891 0.0052,-0.118795 0.0052,-0.209643 -8e-6,-0.41579 -0.06115,-0.716279 -0.183438,-0.901468 -0.1223,-0.188675 -0.319714,-0.283014 -0.592243,-0.283019 -0.356402,5e-6 -0.632432,0.146755 -0.828092,0.440252 -0.19218,0.293505 -0.291761,0.718033 -0.298742,1.273585 v 2.882599 h -1.886793 v -3.060796 c -5e-6,-0.649892 -0.05591,-1.067432 -0.167715,-1.252621 -0.111814,-0.188675 -0.310975,-0.283014 -0.597484,-0.283019 -0.359892,5e-6 -0.637669,0.148502 -0.833333,0.445493 -0.195671,0.293505 -0.293504,0.714539 -0.293501,1.263103 v 2.88784 h -1.886793 v -5.870021 h 1.886793 v 0.859539 c 0.230605,-0.33193 0.494406,-0.581755 0.791404,-0.749476 0.300486,-0.167709 0.630674,-0.251566 0.990566,-0.251572 0.405306,6e-6 0.763447,0.09784 1.074424,0.293501 0.310965,0.195673 0.546814,0.469956 0.707547,0.822851"
           inkscape:connector-curvature="0" />
        <path
           id="path3047"
           style="font-style:normal;font-variant:normal;font-stretch:normal;font-family:'DejaVu Sans';-inkscape-font-specification:'DejaVu Sans Bold';fill:#6a5687;fill-opacity:1"
           d="m 34.693157,56.445363 c -0.391338,2e-6 -0.686586,0.06639 -0.885744,0.199161 -0.19567,0.132777 -0.293504,0.328444 -0.293501,0.587002 -3e-6,0.237598 0.07861,0.42453 0.235849,0.560797 0.160724,0.132775 0.382596,0.199162 0.665618,0.199161 0.352897,10e-7 0.649891,-0.125785 0.890985,-0.377358 0.241086,-0.255065 0.361631,-0.573024 0.361636,-0.953879 v -0.214884 h -0.974843 m 2.866876,-0.707547 v 3.349056 H 35.668 v -0.870021 c -0.251577,0.356395 -0.534596,0.616702 -0.849057,0.780923 -0.314469,0.160726 -0.697068,0.24109 -1.147799,0.24109 -0.607968,0 -1.102377,-0.17645 -1.483228,-0.52935 -0.377359,-0.356394 -0.566038,-0.817609 -0.566038,-1.383648 0,-0.688327 0.235849,-1.193219 0.707547,-1.514675 0.475191,-0.32145 1.219425,-0.482177 2.232705,-0.48218 H 35.668 V 55.18226 c -5e-6,-0.296991 -0.117056,-0.513622 -0.351153,-0.649895 -0.234106,-0.139758 -0.599235,-0.209639 -1.095388,-0.209644 -0.40182,5e-6 -0.775684,0.04019 -1.121593,0.120545 -0.345914,0.08037 -0.667367,0.200913 -0.964361,0.361636 v -1.430818 c 0.401815,-0.09783 0.805379,-0.171203 1.210692,-0.220126 0.405308,-0.05241 0.810619,-0.07861 1.215933,-0.07862 1.058695,6e-6 1.822147,0.209649 2.290356,0.628931 0.471692,0.415798 0.707541,1.093645 0.707547,2.033543"
           inkscape:connector-curvature="0" />
        <path
           id="path3049"
           style="fill:#eb7239;fill-opacity:1"
           d="m 43.901751,53.400289 v 1.425577 c -0.401822,-0.16771 -0.789662,-0.293497 -1.163522,-0.377359 -0.373868,-0.08385 -0.726768,-0.125781 -1.0587,-0.125786 -0.356397,5e-6 -0.621945,0.04543 -0.796646,0.136269 -0.171211,0.08736 -0.256815,0.223624 -0.256813,0.408805 -2e-6,0.150248 0.06464,0.265552 0.19392,0.345912 0.132772,0.08037 0.368621,0.139766 0.707548,0.178197 l 0.330188,0.04717 c 0.960862,0.122296 1.607263,0.323204 1.939203,0.602726 0.33193,0.279527 0.497898,0.718031 0.497904,1.315513 -6e-6,0.625438 -0.230614,1.095389 -0.691824,1.409854 -0.461221,0.314465 -1.14955,0.471698 -2.064989,0.471698 -0.387844,0 -0.78966,-0.03145 -1.205451,-0.09434 -0.412301,-0.0594 -0.836828,-0.150244 -1.273585,-0.272537 v -1.425576 c 0.373864,0.181693 0.756463,0.317961 1.147799,0.408805 0.394826,0.09085 0.794896,0.136269 1.200209,0.136268 0.366873,1e-6 0.642904,-0.05066 0.828093,-0.151991 0.185181,-0.101327 0.277773,-0.251571 0.277777,-0.450734 -4e-6,-0.167713 -0.06464,-0.291752 -0.19392,-0.372117 -0.12579,-0.08386 -0.379109,-0.148496 -0.759958,-0.193921 l -0.330189,-0.04193 c -0.835082,-0.10482 -1.420336,-0.29874 -1.755765,-0.581761 -0.33543,-0.283016 -0.503145,-0.712785 -0.503144,-1.289309 -1e-6,-0.621937 0.213136,-1.083153 0.639413,-1.383647 0.426273,-0.300484 1.079662,-0.450728 1.960167,-0.450734 0.345909,6e-6 0.709291,0.02621 1.090147,0.07862 0.380848,0.05242 0.794894,0.134527 1.242138,0.246331"
           inkscape:connector-curvature="0" />
        <path
           id="path3051"
           style="fill:#eb7239;fill-opacity:1"
           d="m 48.503429,54.417061 c -0.415796,5e-6 -0.733755,0.150249 -0.953878,0.450734 -0.216634,0.296999 -0.32495,0.726768 -0.324948,1.289308 -2e-6,0.562546 0.108314,0.994062 0.324948,1.294549 0.220123,0.296996 0.538082,0.445494 0.953878,0.445493 0.408801,10e-7 0.721519,-0.148497 0.938155,-0.445493 0.216627,-0.300487 0.324943,-0.732003 0.324948,-1.294549 -5e-6,-0.56254 -0.108321,-0.992309 -0.324948,-1.289308 -0.216636,-0.300485 -0.529354,-0.450729 -0.938155,-0.450734 m 0,-1.341719 c 1.009779,6e-6 1.797689,0.272542 2.363732,0.81761 0.569525,0.545078 0.854291,1.299794 0.854297,2.264151 -6e-6,0.964362 -0.284772,1.719079 -0.854297,2.264151 -0.566043,0.545073 -1.353953,0.81761 -2.363732,0.81761 -1.01328,0 -1.806431,-0.272537 -2.379455,-0.81761 -0.569532,-0.545072 -0.854298,-1.299789 -0.854297,-2.264151 -1e-6,-0.964357 0.284765,-1.719073 0.854297,-2.264151 0.573024,-0.545068 1.366175,-0.817604 2.379455,-0.81761"
           inkscape:connector-curvature="0" />
        <path
           id="path3053"
           style="fill:#eb7239;fill-opacity:1"
           d="m 56.952067,50.931736 v 1.231656 h -1.037736 c -0.265552,7e-6 -0.450737,0.04892 -0.555555,0.146751 -0.104825,0.09435 -0.157236,0.260314 -0.157233,0.497903 v 0.408805 h 1.603774 v 1.341719 h -1.603774 v 4.528302 h -1.87631 V 54.55857 h -0.932914 v -1.341719 h 0.932914 v -0.408805 c -10e-7,-0.639406 0.178196,-1.111103 0.534591,-1.415094 0.356392,-0.307469 0.908453,-0.461208 1.656184,-0.461216 h 1.436059"
           inkscape:connector-curvature="0" />
        <path
           id="path3055"
           style="fill:#eb7239;fill-opacity:1"
           d="m 59.813703,51.550185 v 1.666666 h 1.933962 v 1.341719 h -1.933962 v 2.489518 c -3e-6,0.272539 0.05416,0.457724 0.162473,0.555556 0.108313,0.09434 0.323198,0.14151 0.644654,0.141509 h 0.964361 v 1.341719 h -1.609015 c -0.740743,0 -1.266598,-0.153738 -1.577568,-0.461216 -0.307478,-0.31097 -0.461217,-0.836826 -0.461216,-1.577568 V 54.55857 h -0.932914 v -1.341719 h 0.932914 v -1.666666 h 1.876311"
           inkscape:connector-curvature="0" />
      </g>
      <g
         id="g2891-9-4-3-4"
         style="display:inline;fill:#000000;fill-opacity:1;stroke:#000000;stroke-width:0.39928606;stroke-miterlimit:4;stroke-dasharray:none;stroke-opacity:1"
         transform="matrix(1.6030804,0.0332426,0.03471218,-1.5352121,-381.69846,846.97503)">
        <path
           inkscape:connector-curvature="0"
           id="path2893-7-8-3-8"
           transform="matrix(0.07900954,0.00171083,0.00178646,-0.08250237,179.0648,504.56302)"
           d="m 674.375,-578.53125 c -2.88874,0.13382 -4.02185,1.21162 -0.4375,3.8125 16.75952,7.72369 34.50437,14.0216 49.5625,24.6875 33.69135,23.86404 55.37724,58.45628 66.46875,98.4375 6.4711,23.32625 5.50182,37.53462 9.3125,61 2.49985,14.10302 9.6008,32.64797 17.25,48.46875 10.34609,25.13897 26.03497,48.36096 41.8125,65.125 17.45317,17.33638 45.94157,36.88089 88.125,47.84375 17.51897,3.93804 27.59779,5.58745 32.28125,5.5 6.82876,1.83509 14.46693,2.06633 8.3125,-2.84375 -17.50502,-9.04305 -39.44068,-17.05625 -51.65625,-28.6875 -30.08055,-28.64143 -51.26922,-62.9643 -61.4375,-106.0625 -3.8576,-16.35056 -5.76057,-32.23727 -7.25,-45.90625 0.44893,-11.80125 1.76861,-24.10565 3.71875,-37.25 2.21078,-17.66517 14.05408,-32.18976 25.125,-43.34375 10.24538,-6.90474 18.86015,-9.99947 26.46875,-8.375 11.36409,2.56284 36.38452,7.96249 50.34375,8.34375 5.66185,-12.76922 -6.62196,-30.22377 -21.375,-42.15625 26.01322,-13.31492 50.7253,-19.35509 64.125,-23.34375 10.5249,-3.23303 -18.05733,-0.9422 -32.625,1.5 -19.55453,2.83292 -37.31898,4.61888 -54.8125,8.71875 -13.42363,-6.6494 -27.18496,-8.56114 -40.21875,-7.125 -7.20259,0.1264 -15.61695,1.66179 -21.65625,4.0625 -17.28316,6.75404 -36.20675,22.02737 -42.5625,36.5 -0.96011,1.43594 -1.96534,3.43123 -3,5.75 -5.17922,-8.28599 -11.05274,-15.78098 -17.40625,-22.03125 -30.81145,-30.79903 -73.31665,-36.0387 -115.03125,-49.71875 -3.10645,-1.69535 -9.72341,-3.0783 -13.4375,-2.90625 z M 889.25,-549.625 c 7.40203,0.003 13.28548,1.62505 13.5625,5.5 3.07504,8.29747 -15.17482,15.98417 -24.53125,18.59375 -11.46641,3.02402 -24.78893,11.34632 -33.21875,19.0625 -9.47256,6.82698 -20.87876,23.91281 -25.5625,34.3125 -17.58852,31.33288 -4.02166,-24.00528 4.5625,-36.84375 6.35575,-14.47263 25.27934,-29.77721 42.5625,-36.53125 6.30796,-2.50751 15.22297,-4.09641 22.625,-4.09375 z"
           style="fill:#000000;fill-opacity:1;stroke:#000000;stroke-width:4.94435215;stroke-miterlimit:4;stroke-dasharray:none;stroke-opacity:1" />
      </g>
    </g>
    <flowRoot
       transform="matrix(26.552531,0,0,-26.552531,5153.8415,8220.2814)"
       style="font-style:normal;font-weight:normal;font-size:13.33333397px;line-height:1.25;font-family:sans-serif;letter-spacing:0px;word-spacing:0px;fill:#000000;fill-opacity:1;stroke:none"
       id="flowRoot3213"
       xml:space="preserve"><flowRegion
         style="font-size:13.33333397px;fill:#000000;fill-opacity:1"
         id="flowRegion3207"><rect
           style="font-size:13.33333397px;fill:#000000;fill-opacity:1"
           y="266.35513"
           x="100.31152"
           height="24.012939"
           width="312.21967"
           id="rect3205" /></flowRegion><flowPara
         id="flowPara3211"
         style="font-size:13.33333397px;fill:#000000;fill-opacity:1">Framasoft logo by JosephK under CC-BY-SA 4.0</flowPara></flowRoot>  </g>
</svg>
